Tidyverse & Database HW
…
3. What is git and what is github? 

Git is a version control software. It allows you to take snapshots of the folders at different points in time. Github is an online hosting service for Git-based projects that allows us to easily collaborate with others.

4. What are the two main differences between a tibble and a dataframe?

Tibbles print nicer and display the number of observations, columns, etc. They also do not simplify and will return as a tibble, rather than dataframes that could simplify to a vector when subsetting a single column.

5. Rewrite the following nested function call using baseR’s chaining operator.  Note: I didn’t use a block quote on this section because I wanted to use a code chunk.

#Original code
library(tidyverse)
arrange(filter(select(as_tibble(iris), starts_with("Petal"), Species), Petal.Length < 1.55), Species)

# A tibble: 37 × 3
   Petal.Length Petal.Width Species
          <dbl>       <dbl> <fct>  
 1          1.4         0.2 setosa 
 2          1.4         0.2 setosa 
 3          1.3         0.2 setosa 
 4          1.5         0.2 setosa 
 5          1.4         0.2 setosa 
 6          1.4         0.3 setosa 
 7          1.5         0.2 setosa 
 8          1.4         0.2 setosa 
 9          1.5         0.1 setosa 
10          1.5         0.2 setosa 
# ℹ 27 more rows

#Code with chaining
as_tibble(iris) |>
  select(starts_with("Petal"), Species) |>
  filter(Petal.Length < 1.55) |>
  arrange(Species)

# A tibble: 37 × 3
   Petal.Length Petal.Width Species
          <dbl>       <dbl> <fct>  
 1          1.4         0.2 setosa 
 2          1.4         0.2 setosa 
 3          1.3         0.2 setosa 
 4          1.5         0.2 setosa 
 5          1.4         0.2 setosa 
 6          1.4         0.3 setosa 
 7          1.5         0.2 setosa 
 8          1.4         0.2 setosa 
 9          1.5         0.1 setosa 
10          1.5         0.2 setosa 
# ℹ 27 more rows
…
Long format is where each row has one observation and each column has a variable.Wide format is where more than one observation may be in a given row. We generally prefer long format for statistical analysis.

Task 2: Reading Delimited Data

Glass Data

I first read in the glass dataset using read_csv because the delimiter is a comma. I then set the column names as given by the variables and printed out the tibble by calling the object name.

library(tidyverse)
my_glass_data <- read_csv("https://www4.stat.ncsu.edu/~online/datasets/glass.data", 
      col_names = c("ID", "RI", "Na", "Mg", "Al", "Si", "K", "Ca", "Ba", "Fe", "Type_of_Glass"))
my_glass_data

# A tibble: 214 × 11
      ID    RI    Na    Mg    Al    Si     K    Ca    Ba    Fe Type_of_Glass
   <dbl> <dbl> <dbl> <dbl> <dbl> <dbl> <dbl> <dbl> <dbl> <dbl>         <dbl>
 1     1  1.52  13.6  4.49  1.1   71.8  0.06  8.75     0  0                1
 2     2  1.52  13.9  3.6   1.36  72.7  0.48  7.83     0  0                1
 3     3  1.52  13.5  3.55  1.54  73.0  0.39  7.78     0  0                1
 4     4  1.52  13.2  3.69  1.29  72.6  0.57  8.22     0  0                1
 5     5  1.52  13.3  3.62  1.24  73.1  0.55  8.07     0  0                1
 6     6  1.52  12.8  3.61  1.62  73.0  0.64  8.07     0  0.26             1
 7     7  1.52  13.3  3.6   1.14  73.1  0.58  8.17     0  0                1
 8     8  1.52  13.2  3.61  1.05  73.2  0.57  8.24     0  0                1
 9     9  1.52  14.0  3.58  1.37  72.1  0.56  8.3      0  0                1
10    10  1.52  13    3.6   1.36  73.0  0.57  8.4      0  0.11             1
# ℹ 204 more rows
…
              ifelse(Type_of_Glass == 4, "vehicle_windows_non_float_processed",
                ifelse(Type_of_Glass == 5, "containers",
                  ifelse(Type_of_Glass == 6, "tableware",
                    ifelse(Type_of_Glass == 7, "headlamps",
                           "Error")
        )
        )
        )
        )
        )
        )
        ) |>
  filter(Fe < 0.2 & Type_of_Glass %in% c("tableware", "headlamps"))

# A tibble: 38 × 11
      ID    RI    Na    Mg    Al    Si     K    Ca    Ba    Fe Type_of_Glass
   <dbl> <dbl> <dbl> <dbl> <dbl> <dbl> <dbl> <dbl> <dbl> <dbl> <chr>        
 1   177  1.52  14    2.39  1.56  72.4  0     9.57  0        0 tableware    
 2   178  1.52  13.8  2.41  1.19  72.8  0     9.77  0        0 tableware    
 3   179  1.52  14.5  2.24  1.62  72.4  0     9.26  0        0 tableware    
 4   180  1.52  14.1  2.19  1.66  72.7  0     9.32  0        0 tableware    
 5   181  1.51  14.4  1.74  1.54  74.6  0     7.59  0        0 tableware    
 6   182  1.52  15.0  0.78  1.74  72.5  0     9.95  0        0 tableware    
 7   183  1.52  14.2  0     2.09  72.7  0    10.9   0        0 tableware    
 8   184  1.52  14.6  0     0.56  73.5  0    11.2   0        0 tableware    
 9   185  1.51  17.4  0     0.34  75.4  0     6.65  0        0 tableware    
10   186  1.51  13.7  3.2   1.81  72.8  1.76  5.43  1.19     0 headlamps    
# ℹ 28 more rows

Yeast Data

I read in the Yeast Data file. This dataset is a space-delimited file where two spaces are separating each. I opted to use the generic read_delim and then specify the delimiter as two spaces. I also added the column names as given in the table by using col_names().

my_yeast_data <- read_delim("https://www4.stat.ncsu.edu/~online/datasets/yeast.data",
           delim = "  ",
         col_names = c("seq_name", "mcg", "gvh", "alm", "mit", "erl", "pox", "vac", "nuc", "class"))
my_yeast_data

# A tibble: 1,484 × 10
   seq_name     mcg   gvh   alm   mit   erl   pox   vac   nuc class
   <chr>      <dbl> <dbl> <dbl> <dbl> <dbl> <dbl> <dbl> <dbl> <chr>
 1 ADT1_YEAST  0.58  0.61  0.47  0.13   0.5   0    0.48  0.22 MIT  
 2 ADT2_YEAST  0.43  0.67  0.48  0.27   0.5   0    0.53  0.22 MIT  
 3 ADT3_YEAST  0.64  0.62  0.49  0.15   0.5   0    0.53  0.22 MIT  
 4 AAR2_YEAST  0.58  0.44  0.57  0.13   0.5   0    0.54  0.22 NUC  
 5 AATM_YEAST  0.42  0.44  0.48  0.54   0.5   0    0.48  0.22 MIT  
 6 AATC_YEAST  0.51  0.4   0.56  0.17   0.5   0.5  0.49  0.22 CYT  
 7 ABC1_YEAST  0.5   0.54  0.48  0.65   0.5   0    0.53  0.22 MIT  
 8 BAF1_YEAST  0.48  0.45  0.59  0.2    0.5   0    0.58  0.34 NUC  
 9 ABF2_YEAST  0.55  0.5   0.66  0.36   0.5   0    0.49  0.22 MIT  
10 ABP1_YEAST  0.4   0.39  0.6   0.15   0.5   0    0.58  0.3  CYT  
# ℹ 1,474 more rows

I then used chaining to first select the columns between mcg and vac and then the class variable. This omits the seq_name column and the nuc columns. Then I grouped by class and added the means and medians at each class grouping using the across function. Since all the columns left were numeric I used is.numeric as was used in the notes and made the names be the mean_columnname and median_columnname.

my_yeast_data |>
  select(mcg:vac, class) |>
  group_by(class) |>
  mutate(across(where(is.numeric), mean, .names = "mean_{.col}")) |>
  mutate(across(where(is.numeric), median, .names="median_{.col}"))

# A tibble: 1,484 × 29
# Groups:   class [44]
     mcg   gvh   alm   mit   erl   pox   vac class mean_mcg mean_gvh mean_alm
   <dbl> <dbl> <dbl> <dbl> <dbl> <dbl> <dbl> <chr>    <dbl>    <dbl>    <dbl>
 1  0.58  0.61  0.47  0.13   0.5   0    0.48 MIT      0.521    0.531    0.519
 2  0.43  0.67  0.48  0.27   0.5   0    0.53 MIT      0.521    0.531    0.519
 3  0.64  0.62  0.49  0.15   0.5   0    0.53 MIT      0.521    0.531    0.519
 4  0.58  0.44  0.57  0.13   0.5   0    0.54 NUC      0.453    0.458    0.529
 5  0.42  0.44  0.48  0.54   0.5   0    0.48 MIT      0.521    0.531    0.519
 6  0.51  0.4   0.56  0.17   0.5   0.5  0.49 CYT      0.480    0.469    0.536
 7  0.5   0.54  0.48  0.65   0.5   0    0.53 MIT      0.521    0.531    0.519
 8  0.48  0.45  0.59  0.2    0.5   0    0.58 NUC      0.453    0.458    0.529
 9  0.55  0.5   0.66  0.36   0.5   0    0.49 MIT      0.521    0.531    0.519
10  0.4   0.39  0.6   0.15   0.5   0    0.58 CYT      0.480    0.469    0.536
# ℹ 1,474 more rows
# ℹ 18 more variables: mean_mit <dbl>, mean_erl <dbl>, mean_pox <dbl>,
#   mean_vac <dbl>, median_mcg <dbl>, median_gvh <dbl>, median_alm <dbl>,
#   median_mit <dbl>, median_erl <dbl>, median_pox <dbl>, median_vac <dbl>,
#   median_mean_mcg <dbl>, median_mean_gvh <dbl>, median_mean_alm <dbl>,
#   median_mean_mit <dbl>, median_mean_erl <dbl>, median_mean_pox <dbl>,
#   median_mean_vac <dbl>

Task 2: Combining Excel and Delimited Data

I first downloaded the file and placed it in my working directory. Then I used the read_excel function to read in the dataset and since no sheet was specified, it read in the first sheet. I then read in the second sheet and assigned them to wine_col_names, but this wasn’t working correctly initially so I had to use pull() to pull the column called “Variables” and return it as a vector. Then I was able to use the colnames() to assign the new column names based on what was seen in the second sheet of the excel document. Finally, I added a column of Type and set them all to white since these were all white wines.

library(readxl)
my_white_wine <- read_excel("white-wine.xlsx")
my_white_wine

# A tibble: 4,898 × 12
   `fixed acidity` `volatile acidity` `citric acid` `residual sugar` chlorides
             <dbl>              <dbl>         <dbl>            <dbl>     <dbl>
 1               7               0.27          0.36             20.7     0.045
 2              63               0.3           0.34              1.6     0.049
 3              81               0.28          0.4               6.9     0.05 
 4              72               0.23          0.32              8.5     0.058
 5              72               0.23          0.32              8.5     0.058
 6              81               0.28          0.4               6.9     0.05 
 7              62               0.32          0.16              7       0.045
 8               7               0.27          0.36             20.7     0.045
 9              63               0.3           0.34              1.6     0.049
10              81               0.22          0.43              1.5     0.044
# ℹ 4,888 more rows
# ℹ 7 more variables: `free sulfur dioxide` <dbl>,
#   `total sulfur dioxide` <dbl>, density <dbl>, pH <dbl>, sulphates <dbl>,
#   alcohol <dbl>, quality <dbl>
wine_col_names <- read_excel("white-wine.xlsx",
                             sheet = 2)
new_col_names <- wine_col_names |>
        pull(Variables)
new_col_names

 [1] "fixed_acidity"        "volatile_acidity"     "citric_acid"         
 [4] "residual_sugar"       "chlorides"            "free_sulfur_dioxide" 
 [7] "total_sulfur_dioxide" "density"              "pH"                  
[10] "sulphates"            "alcohol"              "quality"             

colnames(my_white_wine) <- new_col_names
my_white_wine

# A tibble: 4,898 × 12
   fixed_acidity volatile_acidity citric_acid residual_sugar chlorides
           <dbl>            <dbl>       <dbl>          <dbl>     <dbl>
 1             7             0.27        0.36           20.7     0.045
 2            63             0.3         0.34            1.6     0.049
 3            81             0.28        0.4             6.9     0.05 
 4            72             0.23        0.32            8.5     0.058
 5            72             0.23        0.32            8.5     0.058
 6            81             0.28        0.4             6.9     0.05 
 7            62             0.32        0.16            7       0.045
 8             7             0.27        0.36           20.7     0.045
 9            63             0.3         0.34            1.6     0.049
10            81             0.22        0.43            1.5     0.044
# ℹ 4,888 more rows
# ℹ 7 more variables: free_sulfur_dioxide <dbl>, total_sulfur_dioxide <dbl>,
#   density <dbl>, pH <dbl>, sulphates <dbl>, alcohol <dbl>, quality <dbl>
…
my_red_wine <- read_csv2("https://www4.stat.ncsu.edu/~online/datasets/red-wine.csv")
colnames(my_red_wine) <- new_col_names
my_red_wine <- 
  my_red_wine |>
  mutate(volatile_acidity = as.numeric(volatile_acidity),
         citric_acid = as.numeric(citric_acid),
         chlorides = as.numeric(chlorides),
         density = as.numeric(density),
         sulphates = as.numeric(sulphates)) |>
  mutate(Type = "Red")
my_red_wine

# A tibble: 1,599 × 13
   fixed_acidity volatile_acidity citric_acid residual_sugar chlorides
           <dbl>            <dbl>       <dbl>          <dbl>     <dbl>
 1            74             0.7         0                19     0.076
 2            78             0.88        0                26     0.098
 3            78             0.76        0.04             23     0.092
 4           112             0.28        0.56             19     0.075
 5            74             0.7         0                19     0.076
 6            74             0.66        0                18     0.075
 7            79             0.6         0.06             16     0.069
 8            73             0.65        0                12     0.065
 9            78             0.58        0.02              2     0.073
10            75             0.5         0.36             61     0.071
# ℹ 1,589 more rows
# ℹ 8 more variables: free_sulfur_dioxide <dbl>, total_sulfur_dioxide <dbl>,
#   density <dbl>, pH <dbl>, sulphates <dbl>, alcohol <dbl>, quality <dbl>,
#   Type <chr>

all_wine_data <- dplyr::bind_rows(my_white_wine, my_red_wine)

all_wine_data |>
  filter(quality > 6.5 & alcohol < 132) |>
  arrange(desc(quality)) |>
  select(contains("acid"), alcohol, Type, quality) |>
  group_by(quality) |>
  mutate(alc_mean = mean(alcohol),
         alc_sd =sd(alcohol))

# A tibble: 1,198 × 8
# Groups:   quality [3]
   fixed_acidity volatile_acidity citric_acid alcohol Type  quality alc_mean
           <dbl>            <dbl>       <dbl>   <dbl> <chr>   <dbl>    <dbl>
 1            91             0.27        0.45     104 White       9     122.
 2            66             0.36        0.29     124 White       9     122.
 3            74             0.24        0.36     125 White       9     122.
 4            69             0.36        0.34     127 White       9     122.
 5            71             0.26        0.49     129 White       9     122.
 6            62             0.66        0.48     128 White       8     102.
 7            62             0.66        0.48     128 White       8     102.
 8            68             0.26        0.42     105 White       8     102.
 9            67             0.23        0.31     107 White       8     102.
10            67             0.23        0.31     107 White       8     102.
# ℹ 1,188 more rows
# ℹ 1 more variable: alc_sd <dbl>
…
library(dplyr)
tbl(connection, "Teams") |>
  filter(yearID == 2015) |>
  collect()

# A tibble: 30 × 48
   yearID lgID  teamID franchID divID  Rank     G Ghome     W     L DivWin WCWin
    <int> <chr> <chr>  <chr>    <chr> <int> <int> <int> <int> <int> <chr>  <chr>
 1   2015 NL    ARI    ARI      W         3   162    81    79    83 N      N    
 2   2015 NL    ATL    ATL      E         4   162    81    67    95 N      N    
 3   2015 AL    BAL    BAL      E         3   162    78    81    81 N      N    
 4   2015 AL    BOS    BOS      E         5   162    81    78    84 N      N    
 5   2015 AL    CHA    CHW      C         4   162    81    76    86 N      N    
 6   2015 NL    CHN    CHC      C         3   162    81    97    65 N      Y    
 7   2015 NL    CIN    CIN      C         5   162    81    64    98 N      N    
 8   2015 AL    CLE    CLE      C         3   161    80    81    80 N      N    
 9   2015 NL    COL    COL      W         5   162    81    68    94 N      N    
10   2015 AL    DET    DET      C         5   161    81    74    87 N      N    
# ℹ 20 more rows
# ℹ 36 more variables: LgWin <chr>, WSWin <chr>, R <int>, AB <int>, H <int>,
#   X2B <int>, X3B <int>, HR <int>, BB <int>, SO <int>, SB <int>, CS <int>,
#   HBP <int>, SF <int>, RA <int>, ER <int>, ERA <dbl>, CG <int>, SHO <int>,
#   SV <int>, IPouts <int>, HA <int>, HRA <int>, BBA <int>, SOA <int>, E <int>,
#   DP <int>, FP <dbl>, name <chr>, park <chr>, attendance <int>, BPF <int>,
#   PPF <int>, teamIDBR <chr>, teamIDlahman45 <chr>, teamIDretro <chr>
…
I created a tibble called hall_of_fame by looking at the “Hall of Fame” table and then only selected the inducted to be Y (meaning they actually were inducted). Then I selected only the playerID, yearID, and category variables. Finally, I used collect() so it wouldn’t do a lazy evaluation and actually print out everything. Then I created a people tibble that selected the first and last names and the player ID from the “People” table. Finally, I made a people_inducted by doing a left join so that it would take all of the observations from the hall_of_fame tibble and any matching ones from the people tibble and match them with the playerID. My first observation had a playerID of “cobbty01” and a name of Ty Cobb so this seems to have worked correctly.

hall_of_fame <-tbl(connection, "HallofFame") |>
  filter(inducted == "Y") |>
  select(playerID, yearID, category) |>
  collect()

hall_of_fame

# A tibble: 340 × 3
   playerID  yearID category         
   <chr>      <int> <chr>            
 1 cobbty01    1936 Player           
 2 ruthba01    1936 Player           
 3 wagneho01   1936 Player           
 4 mathech01   1936 Player           
 5 johnswa01   1936 Player           
 6 lajoina01   1937 Player           
 7 speaktr01   1937 Player           
 8 youngcy01   1937 Player           
 9 bulkemo99   1937 Pioneer/Executive
10 johnsba99   1937 Pioneer/Executive
# ℹ 330 more rows

people <- tbl(connection, "People") |>
  select(nameFirst, nameLast, playerID) |>
  collect()

people

# A tibble: 20,676 × 3
   nameFirst nameLast    playerID 
   <chr>     <chr>       <chr>    
 1 David     Aardsma     aardsda01
 2 Hank      Aaron       aaronha01
 3 Tommie    Aaron       aaronto01
 4 Don       Aase        aasedo01 
 5 Andy      Abad        abadan01 
 6 Fernando  Abad        abadfe01 
 7 John      Abadie      abadijo01
 8 Ed        Abbaticchio abbated01
 9 Bert      Abbey       abbeybe01
10 Charlie   Abbey       abbeych01
# ℹ 20,666 more rows

people_inducted <-left_join(hall_of_fame,
          people,
          by = join_by(playerID == playerID))

people_inducted

# A tibble: 340 × 5
   playerID  yearID category          nameFirst nameLast 
   <chr>      <int> <chr>             <chr>     <chr>    
 1 cobbty01    1936 Player            Ty        Cobb     
 2 ruthba01    1936 Player            Babe      Ruth     
 3 wagneho01   1936 Player            Honus     Wagner   
 4 mathech01   1936 Player            Christy   Mathewson
 5 johnswa01   1936 Player            Walter    Johnson  
 6 lajoina01   1937 Player            Nap       Lajoie   
 7 speaktr01   1937 Player            Tris      Speaker  
 8 youngcy01   1937 Player            Cy        Young    
 9 bulkemo99   1937 Pioneer/Executive Morgan    Bulkeley 
10 johnsba99   1937 Pioneer/Executive Ban       Johnson  
# ℹ 330 more rows
…
